{
  "datacenters": [
    {
      "description": "Falkenstein DC Park 8",
      "id": 42,
      "location": {
        "city": "Falkenstein",
        "country": "DE",
        "description": "Falkenstein DC Park 1",
        "id": 42,
        "latitude": 50.47612,
        "longitude": 12.370071,
        "name": "fsn1",
        "network_zone": "eu-central"
      },
      "name": "fsn1-dc8",
      "server_types": {
        "available": [1, 2, 3],
        "available_for_migration": [1, 2, 3],
        "supported": [1, 2, 3]
      }
    }
  ],
  "meta": {
    "pagination": {
      "last_page": 4,
      "next_page": 4,
      "page": 3,
      "per_page": 25,
      "previous_page": 2,
      "total_entries": 100
    }
  },
  "recommendation": 1
}