{
  "meta": {
    "pagination": {
      "last_page": 4,
      "next_page": 4,
      "page": 3,
      "per_page": 25,
      "previous_page": 2,
      "total_entries": 100
    }
  },
  "primary_ips": [
    {
      "assignee_id": 17,
      "assignee_type": "server",
      "auto_delete": true,
      "blocked": false,
      "created": "2016-01-30T23:55:00+00:00",
      "datacenter": {
        "description": "Falkenstein DC Park 8",
        "id": 42,
        "location": {
          "city": "Falkenstein",
          "country": "DE",
          "description": "Falkenstein DC Park 1",
          "id": 42,
          "latitude": 50.47612,
          "longitude": 12.370071,
          "name": "fsn1",
          "network_zone": "eu-central"
        },
        "name": "fsn1-dc8",
        "server_types": {
          "available": [
            1,
            2,
            3
          ],
          "available_for_migration": [
            1,
            2,
            3
          ],
          "supported": [
            1,
            2,
            3
          ]
        }
      },
      "dns_ptr": [
        {
          "dns_ptr": "server.example.com",
          "ip": "2001:db8::1"
        }
      ],
      "id": 42,
      "ip": "131.232.99.1",
      "labels": {
        "environment": "prod",
        "example.com/my": "label",
        "just-a-key": ""
      },
      "name": "my-resource",
      "protection": {
        "delete": false
      },
      "type": "ipv4"
    }
  ]
}