{
  "isos": [
    {
      "architecture": "x86",
      "deprecation": {
        "announced": "2023-06-01T00:00:00+00:00",
        "unavailable_after": "2023-09-01T00:00:00+00:00"
      },
      "description": "FreeBSD 11.0 x64",
      "id": 42,
      "name": "FreeBSD-11.0-RELEASE-amd64-dvd1",
      "type": "public"
    }
  ],
  "meta": {
    "pagination": {
      "last_page": 4,
      "next_page": 4,
      "page": 3,
      "per_page": 25,
      "previous_page": 2,
      "total_entries": 100
    }
  }
}