{
  "meta": {
    "pagination": {
      "last_page": 4,
      "next_page": 4,
      "page": 3,
      "per_page": 25,
      "previous_page": 2,
      "total_entries": 100
    }
  },
  "ssh_keys": [
    {
      "created": "2016-01-30T23:55:00+00:00",
      "fingerprint": "b7:2f:30:a0:2f:6c:58:6c:21:04:58:61:ba:06:3b:2f",
      "id": 42,
      "labels": {
        "environment": "prod",
        "example.com/my": "label",
        "just-a-key": ""
      },
      "name": "my-resource",
      "public_key": "ssh-rsa AAAjjk76kgf...Xt"
    }
  ]
}